^C:\USERS\DELL\DESKTOP\SDL\16520870\16520870\DEBUG\BEZIER.OBJ|C:\USERS\DELL\DESKTOP\SDL\16520870\16520870\DEBUG\CIRCLE.OBJ|C:\USERS\DELL\DESKTOP\SDL\16520870\16520870\DEBUG\CLIPPING.OBJ|C:\USERS\DELL\DESKTOP\SDL\16520870\16520870\DEBUG\DRAWPOLYGON.OBJ|C:\USERS\DELL\DESKTOP\SDL\16520870\16520870\DEBUG\ELLIPSE.OBJ|C:\USERS\DELL\DESKTOP\SDL\16520870\16520870\DEBUG\FILLCOLOR.OBJ|C:\USERS\DELL\DESKTOP\SDL\16520870\16520870\DEBUG\LINE.OBJ|C:\USERS\DELL\DESKTOP\SDL\16520870\16520870\DEBUG\MAIN.OBJ|C:\USERS\DELL\DESKTOP\SDL\16520870\16520870\DEBUG\PARABOL.OBJ|C:\USERS\DELL\DESKTOP\SDL\16520870\16520870\DEBUG\SOURCE.OBJ
C:\USERS\DELL\DESKTOP\SDL\16520870\DEBUG\16520870.EXE
C:\USERS\DELL\DESKTOP\SDL\16520870\DEBUG\16520870.ILK
C:\USERS\DELL\DESKTOP\SDL\16520870\DEBUG\16520870.PDB
